FinalProject/LUMOS-EDITED/LUMOS.vcd
$date
	Fri Jan 24 22:13:54 2025
$end
$version
	Icarus Verilog
$end
$timescale
	1ns
$end
$scope module LUMOS_Testbench $end
$var wire 32 ! f0 [31:0] $end
$var wire 32 " f1 [31:0] $end
$var wire 32 # f10 [31:0] $end
$var wire 32 $ f11 [31:0] $end
$var wire 32 % f12 [31:0] $end
$var wire 32 & f13 [31:0] $end
$var wire 32 ' f14 [31:0] $end
$var wire 32 ( f15 [31:0] $end
$var wire 32 ) f16 [31:0] $end
$var wire 32 * f17 [31:0] $end
$var wire 32 + f18 [31:0] $end
$var wire 32 , f19 [31:0] $end
$var wire 32 - f2 [31:0] $end
$var wire 32 . f20 [31:0] $end
$var wire 32 / f21 [31:0] $end
$var wire 32 0 f22 [31:0] $end
$var wire 32 1 f23 [31:0] $end
$var wire 32 2 f24 [31:0] $end
$var wire 32 3 f25 [31:0] $end
$var wire 32 4 f26 [31:0] $end
$var wire 32 5 f27 [31:0] $end
$var wire 32 6 f28 [31:0] $end
$var wire 32 7 f29 [31:0] $end
$var wire 32 8 f3 [31:0] $end
$var wire 32 9 f30 [31:0] $end
$var wire 32 : f31 [31:0] $end
$var wire 32 ; f4 [31:0] $end
$var wire 32 < f5 [31:0] $end
$var wire 32 = f6 [31:0] $end
$var wire 32 > f7 [31:0] $end
$var wire 32 ? f8 [31:0] $end
$var wire 32 @ f9 [31:0] $end
$var wire 32 A memoryData [31:0] $end
$var wire 32 B x0_zero [31:0] $end
$var wire 32 C x10_a0 [31:0] $end
$var wire 32 D x11_a1 [31:0] $end
$var wire 32 E x12_a2 [31:0] $end
$var wire 32 F x13_a3 [31:0] $end
$var wire 32 G x14_a4 [31:0] $end
$var wire 32 H x15_a5 [31:0] $end
$var wire 32 I x16_a6 [31:0] $end
$var wire 32 J x17_a7 [31:0] $end
$var wire 32 K x18_s2 [31:0] $end
$var wire 32 L x19_s3 [31:0] $end
$var wire 32 M x1_ra [31:0] $end
$var wire 32 N x20_s4 [31:0] $end
$var wire 32 O x21_s5 [31:0] $end
$var wire 32 P x22_s6 [31:0] $end
$var wire 32 Q x23_s7 [31:0] $end
$var wire 32 R x24_s8 [31:0] $end
$var wire 32 S x25_s9 [31:0] $end
$var wire 32 T x26_s10 [31:0] $end
$var wire 32 U x27_s11 [31:0] $end
$var wire 32 V x28_t3 [31:0] $end
$var wire 32 W x29_t4 [31:0] $end
$var wire 32 X x2_sp [31:0] $end
$var wire 32 Y x30_t5 [31:0] $end
$var wire 32 Z x31_t6 [31:0] $end
$var wire 32 [ x3_gp [31:0] $end
$var wire 32 \ x4_tp [31:0] $end
$var wire 32 ] x5_t0 [31:0] $end
$var wire 32 ^ x6_t1 [31:0] $end
$var wire 32 _ x7_t2 [31:0] $end
$var wire 32 ` x8_s0 [31:0] $end
$var wire 32 a x9_s1 [31:0] $end
$var wire 1 b trap $end
$var wire 16 c test_product [15:0] $end
$var wire 1 d memoryReadWrite $end
$var wire 1 e memoryEnable $end
$var wire 32 f memoryAddress [31:0] $end
$var parameter 32 g CLK_PERIOD $end
$var reg 1 h clk $end
$var reg 32 i memoryData_reg [31:0] $end
$var reg 1 j memoryReady $end
$var reg 1 k reset $end
$var reg 8 l test_operand_1 [7:0] $end
$var reg 8 m test_operand_2 [7:0] $end
$var integer 32 n i [31:0] $end
$var integer 32 o j [31:0] $end
$scope module multiplier_8bit $end
$var wire 8 p operand_1 [7:0] $end
$var wire 8 q operand_2 [7:0] $end
$var reg 16 r partial_sum [15:0] $end
$var reg 16 s product [15:0] $end
$var integer 32 t i [31:0] $end
$var integer 32 u j [31:0] $end
$upscope $end
$scope module uut $end
$var wire 1 h clk $end
$var wire 32 v memoryData [31:0] $end
$var wire 1 j memoryReady $end
$var wire 1 k reset $end
$var wire 32 w readData2 [31:0] $end
$var wire 32 x readData1 [31:0] $end
$var wire 32 y immediate [31:0] $end
$var wire 32 z fpuResult [31:0] $end
$var wire 1 { fpuReady $end
$var wire 32 | fixedPointReadData2 [31:0] $end
$var wire 32 } fixedPointReadData1 [31:0] $end
$var wire 1 ~ aluZero $end
$var wire 1 !" aluSign $end
$var wire 32 "" aluResult [31:0] $end
$var parameter 32 #" RESET_ADDRESS $end
$var reg 32 $" FRS1 [31:0] $end
$var reg 32 %" FRS2 [31:0] $end
$var reg 32 &" RS1 [31:0] $end
$var reg 32 '" RS2 [31:0] $end
$var reg 32 (" aluOperand1 [31:0] $end
$var reg 32 )" aluOperand2 [31:0] $end
$var reg 4 *" aluOperation [3:0] $end
$var reg 32 +" aluResultRegister [31:0] $end
$var reg 1 ," aluSignRegister $end
$var reg 2 -" aluSrcA [1:0] $end
$var reg 2 ." aluSrcB [1:0] $end
$var reg 1 /" aluZeroRegister $end
$var reg 1 0" fixedPointRegisterWriteEnable $end
$var reg 2 1" fixedPointRegisterWriteSource [1:0] $end
$var reg 32 2" fixedPointWriteData [31:0] $end
$var reg 2 3" fpuOperation [1:0] $end
$var reg 32 4" fpuResultRegister [31:0] $end
$var reg 3 5" funct3 [2:0] $end
$var reg 7 6" funct7 [6:0] $end
$var reg 1 7" instructionOrData $end
$var reg 3 8" instructionType [2:0] $end
$var reg 32 9" ir [31:0] $end
$var reg 1 :" irWrite $end
$var reg 32 ;" memoryAddress [31:0] $end
$var reg 32 <" memoryDataRegister [31:0] $end
$var reg 1 =" memoryDataRegisterWrite $end
$var reg 1 e memoryEnable $end
$var reg 1 d memoryReadWrite $end
$var reg 5 >" nextState [4:0] $end
$var reg 7 ?" opcode [6:0] $end
$var reg 32 @" pc [31:0] $end
$var reg 1 A" pcWrite $end
$var reg 1 B" registerWriteEnable $end
$var reg 2 C" registerWriteSource [1:0] $end
$var reg 5 D" state [4:0] $end
$var reg 1 b trap $end
$var reg 32 E" writeData [31:0] $end
$scope module arithmetic_logic_unit $end
$var wire 32 F" operand_1 [31:0] $end
$var wire 32 G" operand_2 [31:0] $end
$var wire 4 H" operation [3:0] $end
$var reg 32 I" result [31:0] $end
$var reg 1 !" sign $end
$var reg 1 ~ zero $end
$upscope $end
$scope module fixed_point_register_file $end
$var wire 1 h clk $end
$var wire 1 J" read_enable_1 $end
$var wire 1 K" read_enable_2 $end
$var wire 5 L" read_index_1 [4:0] $end
$var wire 5 M" read_index_2 [4:0] $end
$var wire 1 k reset $end
$var wire 32 N" write_data [31:0] $end
$var wire 1 0" write_enable $end
$var wire 5 O" write_index [4:0] $end
$var parameter 32 P" DEPTH $end
$var parameter 32 Q" WIDTH $end
$var reg 32 R" read_data_1 [31:0] $end
$var reg 32 S" read_data_2 [31:0] $end
$var integer 32 T" i [31:0] $end
$upscope $end
$scope module fixed_point_unit $end
$var wire 1 h clk $end
$var wire 32 U" operand_1 [31:0] $end
$var wire 32 V" operand_2 [31:0] $end
$var wire 2 W" operation [1:0] $end
$var wire 1 k reset $end
$var wire 32 X" multiplierCircuitResult [31:0] $end
$var parameter 32 Y" FBITS $end
$var parameter 32 Z" ITER $end
$var parameter 32 [" WIDTH $end
$var reg 34 \" ac [33:0] $end
$var reg 34 ]" ac_next [33:0] $end
$var reg 5 ^" i [4:0] $end
$var reg 3 _" multiplication_stage [2:0] $end
$var reg 16 `" multiplierCircuitInput1 [15:0] $end
$var reg 16 a" multiplierCircuitInput2 [15:0] $end
$var reg 3 b" next_multiplication_stage [2:0] $end
$var reg 2 c" next_square_root_stage [1:0] $end
$var reg 32 d" partialProduct1 [31:0] $end
$var reg 32 e" partialProduct2 [31:0] $end
$var reg 32 f" partialProduct3 [31:0] $end
$var reg 32 g" partialProduct4 [31:0] $end
$var reg 64 h" product [63:0] $end
$var reg 1 i" product_ready $end
$var reg 32 j" q [31:0] $end
$var reg 32 k" q_next [31:0] $end
$var reg 1 { ready $end
$var reg 32 l" result [31:0] $end
$var reg 32 m" root [31:0] $end
$var reg 1 n" root_ready $end
$var reg 1 o" sqrt_busy $end
$var reg 1 p" sqrt_start $end
$var reg 2 q" square_root_stage [1:0] $end
$var reg 34 r" test_res [33:0] $end
$var reg 32 s" x [31:0] $end
$var reg 32 t" x_next [31:0] $end
$scope module multiplier_circuit $end
$var wire 16 u" operand_1 [15:0] $end
$var wire 16 v" operand_2 [15:0] $end
$var wire 32 w" product [31:0] $end
$var wire 16 x" partial_product_3 [15:0] $end
$var wire 16 y" partial_product_2 [15:0] $end
$var wire 16 z" partial_product_1 [15:0] $end
$var wire 16 {" partial_product_0 [15:0] $end
$var wire 8 |" operand_2_low [7:0] $end
$var wire 8 }" operand_2_high [7:0] $end
$var wire 8 ~" operand_1_low [7:0] $end
$var wire 8 !# operand_1_high [7:0] $end
$scope module MUL_PP_0 $end
$var wire 8 "# operand_1 [7:0] $end
$var wire 8 ## operand_2 [7:0] $end
$var reg 16 $# partial_sum [15:0] $end
$var reg 16 %# product [15:0] $end
$var integer 32 &# i [31:0] $end
$var integer 32 '# j [31:0] $end
$upscope $end
$scope module MUL_PP_1 $end
$var wire 8 (# operand_1 [7:0] $end
$var wire 8 )# operand_2 [7:0] $end
$var reg 16 *# partial_sum [15:0] $end
$var reg 16 +# product [15:0] $end
$var integer 32 ,# i [31:0] $end
$var integer 32 -# j [31:0] $end
$upscope $end
$scope module MUL_PP_2 $end
$var wire 8 .# operand_1 [7:0] $end
$var wire 8 /# operand_2 [7:0] $end
$var reg 16 0# partial_sum [15:0] $end
$var reg 16 1# product [15:0] $end
$var integer 32 2# i [31:0] $end
$var integer 32 3# j [31:0] $end
$upscope $end
$scope module MUL_PP_3 $end
$var wire 8 4# operand_1 [7:0] $end
$var wire 8 5# operand_2 [7:0] $end
$var reg 16 6# partial_sum [15:0] $end
$var reg 16 7# product [15:0] $end
$var integer 32 8# i [31:0] $end
$var integer 32 9# j [31:0] $end
$upscope $end
$upscope $end
$upscope $end
$scope module immediate_generator $end
$var wire 32 :# instruction [31:0] $end
$var wire 3 ;# instruction_type [2:0] $end
$var reg 32 <# immediate [31:0] $end
$upscope $end
$scope module register_file $end
$var wire 1 h clk $end
$var wire 1 =# read_enable_1 $end
$var wire 1 ># read_enable_2 $end
$var wire 5 ?# read_index_1 [4:0] $end
$var wire 5 @# read_index_2 [4:0] $end
$var wire 1 k reset $end
$var wire 32 A# write_data [31:0] $end
$var wire 1 B# write_enable $end
$var wire 5 C# write_index [4:0] $end
$var parameter 32 D# DEPTH $end
$var parameter 32 E# WIDTH $end
$var reg 32 F# read_data_1 [31:0] $end
$var reg 32 G# read_data_2 [31:0] $end
$var integer 32 H# i [31:0] $end
$upscope $end
$upscope $end
$upscope $end
$enddefinitions $end
$comment Show the parameter values. $end
$dumpall
b100000 E#
b101 D#
b100000 ["
b10101 Z"
b1010 Y"
b100000 Q"
b101 P"
b0 #"
b100 g
$end
#0
$dumpvars
b100000 H#
bx G#
bx F#
bz C#
xB#
bz A#
bz @#
bz ?#
1>#
1=#
bz <#
bx ;#
bz :#
b1000 9#
b1000 8#
bx 7#
bx 6#
bz 5#
bz 4#
b1000 3#
b1000 2#
bx 1#
bx 0#
bz /#
bz .#
b1000 -#
b1000 ,#
bx +#
bx *#
bz )#
bz (#
b1000 '#
b1000 &#
bx %#
bx $#
bz ##
bz "#
bz !#
bz ~"
bz }"
bz |"
bx {"
bx z"
bx y"
bx x"
bx w"
bz v"
bz u"
bx t"
bx s"
bx r"
b0 q"
0p"
xo"
0n"
bx m"
bz l"
bx k"
bx j"
0i"
bx h"
bz g"
bz f"
bz e"
bz d"
b1 c"
b1 b"
bz a"
bz `"
b0 _"
b0 ^"
bx ]"
bx \"
bx X"
bz W"
bx V"
bx U"
b100000 T"
bx S"
bx R"
bz O"
bz N"
bz M"
bz L"
1K"
1J"
bz I"
bz H"
bz G"
bz F"
bz E"
b0 D"
bz C"
zB"
zA"
b0 @"
bz ?"
b1 >"
x="
bx <"
bz ;"
z:"
bz 9"
bx 8"
z7"
bz 6"
bz 5"
bx 4"
bz 3"
bz 2"
bz 1"
z0"
x/"
bz ."
bz -"
x,"
bx +"
bz *"
bz )"
bz ("
bx '"
bx &"
bx %"
bx $"
bz ""
z!"
0~
bx }
bx |
0{
bz z
bz y
bx x
bx w
bz v
b1000 u
b1000 t
b0 s
b0 r
b0 q
b0 p
b0 o
b0 n
b0 m
b0 l
1k
0j
bz i
1h
bz f
0e
zd
b0 c
xb
b0 a
b0 `
b0 _
b0 ^
b0 ]
b0 \
b0 [
b0 Z
b0 Y
b0 X
b0 W
b0 V
b0 U
b0 T
b0 S
b0 R
b0 Q
b0 P
b0 O
b0 N
b0 M
b0 L
b0 K
b0 J
b0 I
b0 H
b0 G
b0 F
b0 E
b0 D
b0 C
b0 B
bz A
b0 @
b0 ?
b0 >
b0 =
b0 <
b0 ;
b0 :
b0 9
b0 8
b0 7
b0 6
b0 5
b0 4
b0 3
b0 2
b0 1
b0 0
b0 /
b0 .
b0 -
b0 ,
b0 +
b0 *
b0 )
b0 (
b0 '
b0 &
b0 %
b0 $
b0 #
b0 "
b0 !
$end
#1
b1000 u
b1000 t
b1 m
b1 q
b1 o
#2
b1000 u
b1000 t
b10 m
b10 q
b10 o
0h
#3
b1000 u
b1000 t
b11 m
b11 q
b11 o
#4
b1 >"
bz 4"
z,"
0/"
bz +"
b1000 u
b1000 t
b100000 T"
b100000 H#
b100 m
b100 q
b100 o
1h
#5
b1000 u
b1000 t
b101 m
b101 q
b101 o
#6
b1000 u
b1000 t
b110 m
b110 q
b110 o
0h
#7
b1000 u
b1000 t
b111 m
b111 q
b111 o
#8
b1000 u
b1000 t
b100000 H#
b100000 T"
b1000 m
b1000 q
b1000 o
1h
#9
b1000 u
b1000 t
b1001 m
b1001 q
b1001 o
#10
b1000 u
b1000 t
b1010 m
b1010 q
b1010 o
0h
#11
b1000 u
b1000 t
b1011 m
b1011 q
b1011 o
#12
b1000 u
b1000 t
b100000 T"
b100000 H#
b1100 m
b1100 q
b1100 o
1h
#13
b1000 u
b1000 t
b1101 m
b1101 q
b1101 o
#14
b1000 u
b1000 t
b1110 m
b1110 q
b1110 o
0h
#15
b1000 u
b1000 t
b1111 m
b1111 q
b1111 o
#16
b1000 u
b1000 t
b100000 H#
b100000 T"
b10000 m
b10000 q
b10000 o
1h
#17
b1000 u
b1000 t
b10001 m
b10001 q
b10001 o
#18
b1000 u
b1000 t
b10010 m
b10010 q
b10010 o
0h
#19
b1000 u
b1000 t
b10011 m
b10011 q
b10011 o
#20
0k
b1000 u
b1000 t
b100000 T"
b100000 H#
b10100 m
b10100 q
b10100 o
1h
#21
b1000 u
b1000 t
b10101 m
b10101 q
b10101 o
#22
b1000 u
b1000 t
b10110 m
b10110 q
b10110 o
0h
#23
b1000 u
b1000 t
b10111 m
b10111 q
b10111 o
#24
b0 f
b0 ;"
bz A
bz v
07"
0d
1e
b10 >"
b1 D"
b1000 u
b1000 t
b11000 m
b11000 q
b11000 o
1h
#25
b1000 u
b1000 t
b11001 m
b11001 q
b11001 o
#26
b1000 u
b1000 t
b11010 m
b11010 q
b11010 o
0h
#27
b1000 u
b1000 t
b11011 m
b11011 q
b11011 o
#28
07"
0d
b10 >"
b10 D"
b1000 u
b1000 t
b11100 m
b11100 q
b11100 o
1h
#29
b1000 u
b1000 t
b11101 m
b11101 q
b11101 o
#30
b1000 u
b1000 t
b11110 m
b11110 q
b11110 o
0h
#31
b1000 u
b1000 t
b11111 m
b11111 q
b11111 o
#32
b1000 u
b1000 t
b100000 m
b100000 q
b100000 o
1h
#33
b1000 u
b1000 t
b100001 m
b100001 q
b100001 o
#34
b1000 u
b1000 t
b100010 m
b100010 q
b100010 o
0h
#35
b1000 u
b1000 t
b100011 m
b100011 q
b100011 o
#36
b1000 u
b1000 t
b100100 m
b100100 q
b100100 o
1h
#37
b1000 u
b1000 t
b100101 m
b100101 q
b100101 o
#38
b1000 u
b1000 t
b100110 m
b100110 q
b100110 o
0h
#39
b1000 u
b1000 t
b100111 m
b100111 q
b100111 o
#40
b1000 u
b1000 t
b101000 m
b101000 q
b101000 o
1h
#41
b1000 u
b1000 t
b101001 m
b101001 q
b101001 o
#42
1:"
07"
0d
b11 >"
1j
b100000100110111 A
b100000100110111 v
b100000100110111 i
b1000 u
b1000 t
b101010 m
b101010 q
b101010 o
0h
#43
b1000 u
b1000 t
b101011 m
b101011 q
b101011 o
#44
0!"
b100 )"
b100 G"
b0 ("
b0 F"
bz f
bz ;"
b100 ""
b100 I"
b0 w
b0 G#
b0 x
b0 F#
b0 |
b0 S"
b0 }
b0 R"
1A"
b0 *"
b0 H"
b1 ."
b0 -"
0e
z7"
z:"
zd
b100 >"
b0 ?#
b0 @#
b10 C#
b0 L"
b0 M"
b10 O"
b0 6"
b100 5"
b110111 ?"
b11 D"
0j
bz A
bz v
bz i
b100000100110111 9"
b100000100110111 :#
b1000 u
b1000 t
b101100 m
b101100 q
b101100 o
1h
#45
b1000 u
b1000 t
b101101 m
b101101 q
b101101 o
#46
b1000 u
b1000 t
b101110 m
b101110 q
b101110 o
0h
#47
b1000 u
b1000 t
b101111 m
b101111 q
b101111 o
#48
z!"
bz )"
bz G"
b100000000000000 y
b100000000000000 <#
bz ""
bz I"
b1 b"
b100 8"
b100 ;#
bz ."
bz -"
bz *"
bz H"
zA"
b101 >"
bz ("
bz F"
b100 D"
b100 @"
b0 '"
b0 &"
b0 %"
b0 V"
b0 $"
b0 U"
0,"
b100 +"
b1000 u
b1000 t
b110000 m
b110000 q
b110000 o
1h
#49
b1000 u
b1000 t
b110001 m
b110001 q
b110001 o
#50
b1000 u
b1000 t
b110010 m
b110010 q
b110010 o
0h
#51
b1000 u
b1000 t
b110011 m
b110011 q
b110011 o
#52
0!"
b100000000000000 E"
b100000000000000 A#
b100000000000000 )"
b100000000000000 G"
b0 ("
b0 F"
1B#
b100000000000000 ""
b100000000000000 I"
1B"
b1 C"
b0 *"
b0 H"
b10 ."
b11 -"
b1 >"
b101 D"
z,"
bz +"
b1000 u
b1000 t
b110100 m
b110100 q
b110100 o
1h
#53
b1000 u
b1000 t
b110101 m
b110101 q
b110101 o
#54
b1000 u
b1000 t
b110110 m
b110110 q
b110110 o
0h
#55
b1000 u
b1000 t
b110111 m
b110111 q
b110111 o
#56
z!"
b100 f
b100 ;"
bz E"
bz A#
bz )"
bz G"
bz ("
bz F"
bz A
bz v
xB#
bz ""
bz I"
07"
0d
1e
zB"
bz C"
bz ."
bz -"
bz *"
bz H"
b10 >"
b100000000000000 X
b1 D"
0,"
b100000000000000 +"
b1000 u
b1000 t
b111000 m
b111000 q
b111000 o
1h
#57
b1000 u
b1000 t
b111001 m
b111001 q
b111001 o
#58
b1000 u
b1000 t
b111010 m
b111010 q
b111010 o
0h
#59
b1000 u
b1000 t
b111011 m
b111011 q
b111011 o
#60
07"
0d
b10 >"
b10 D"
z,"
bz +"
b1000 u
b1000 t
b111100 m
b111100 q
b111100 o
1h
#61
b1000 u
b1000 t
b111101 m
b111101 q
b111101 o
#62
b1000 u
b1000 t
b111110 m
b111110 q
b111110 o
0h
#63
b1000 u
b1000 t
b111111 m
b111111 q
b111111 o
#64
b1000 u
b1000 t
b1000000 m
b1000000 q
b1000000 o
1h
#65
b1000 u
b1000 t
b1000001 m
b1000001 q
b1000001 o
#66
b1000 u
b1000 t
b1000010 m
b1000010 q
b1000010 o
0h
#67
b1000 u
b1000 t
b1000011 m
b1000011 q
b1000011 o
#68
b1000 u
b1000 t
b1000100 m
b1000100 q
b1000100 o
1h
#69
b1000 u
b1000 t
b1000101 m
b1000101 q
b1000101 o
#70
b1000 u
b1000 t
b1000110 m
b1000110 q
b1000110 o
0h
#71
b1000 u
b1000 t
b1000111 m
b1000111 q
b1000111 o
#72
b1000 u
b1000 t
b1001000 m
b1001000 q
b1001000 o
1h
#73
b1000 u
b1000 t
b1001001 m
b1001001 q
b1001001 o
#74
1:"
07"
0d
b11 >"
1j
b11000000000000010000000100010011 A
b11000000000000010000000100010011 v
b11000000000000010000000100010011 i
b1000 u
b1000 t
b1001010 m
b1001010 q
b1001010 o
0h
#75
b1000 u
b1000 t
b1001011 m
b1001011 q
b1001011 o
#76
0!"
b100 )"
b100 G"
b100 ("
b100 F"
bz f
bz ;"
b1000 ""
b1000 I"
b100000000000000 x
b100000000000000 F#
1A"
b0 *"
b0 H"
b1 ."
b0 -"
0e
z7"
z:"
zd
b100 >"
b10 ?#
b10 L"
b11000000000000010000000000000000 y
b11000000000000010000000000000000 <#
b1100000 6"
b0 5"
b10011 ?"
b11 D"
0j
bz A
bz v
bz i
b11000000000000010000000100010011 9"
b11000000000000010000000100010011 :#
b1000 u
b1000 t
b1001100 m
b1001100 q
b1001100 o
1h
#77
b1000 u
b1000 t
b1001101 m
b1001101 q
b1001101 o
#78
b1000 u
b1000 t
b1001110 m
b1001110 q
b1001110 o
0h
#79
b1000 u
b1000 t
b1001111 m
b1001111 q
b1001111 o
#80
z!"
bz )"
bz G"
b11111111111111111111110000000000 y
b11111111111111111111110000000000 <#
bz ""
bz I"
b1 8"
b1 ;#
bz ."
bz -"
bz *"
bz H"
zA"
b101 >"
bz ("
bz F"
b100 D"
b1000 @"
b100000000000000 &"
0,"
b1000 +"
b1000 u
b1000 t
b1010000 m
b1010000 q
b1010000 o
1h
#81
b1000 u
b1000 t
b1010001 m
b1010001 q
b1010001 o
#82
b1000 u
b1000 t
b1010010 m
b1010010 q
b1010010 o
0h
#83
b1000 u
b1000 t
b1010011 m
b1010011 q
b1010011 o
#84
0!"
b11110000000000 E"
b11110000000000 A#
b11111111111111111111110000000000 )"
b11111111111111111111110000000000 G"
b100000000000000 ("
b100000000000000 F"
1B#
b11110000000000 ""
b11110000000000 I"
1B"
b1 C"
b0 *"
b0 H"
b10 ."
b1 -"
b1 >"
b101 D"
z,"
bz +"
b1000 u
b1000 t
b1010100 m
b1010100 q
b1010100 o
1h
#85
b1000 u
b1000 t
b1010101 m
b1010101 q
b1010101 o
#86
b1000 u
b1000 t
b1010110 m
b1010110 q
b1010110 o
0h
#87
b1000 u
b1000 t
b1010111 m
b1010111 q
b1010111 o
#88
z!"
b1000 f
b1000 ;"
bz E"
bz A#
bz )"
bz G"
bz ("
bz F"
bz A
bz v
xB#
bz ""
bz I"
b11110000000000 x
b11110000000000 F#
07"
0d
1e
zB"
bz C"
bz ."
bz -"
bz *"
bz H"
b10 >"
b11110000000000 X
b1 D"
0,"
b11110000000000 +"
b1000 u
b1000 t
b1011000 m
b1011000 q
b1011000 o
1h
#89
b1000 u
b1000 t
b1011001 m
b1011001 q
b1011001 o
#90
b1000 u
b1000 t
b1011010 m
b1011010 q
b1011010 o
0h
#91
b1000 u
b1000 t
b1011011 m
b1011011 q
b1011011 o
#92
07"
0d
b10 >"
b10 D"
z,"
bz +"
b11110000000000 &"
b1000 u
b1000 t
b1011100 m
b1011100 q
b1011100 o
1h
#93
b1000 u
b1000 t
b1011101 m
b1011101 q
b1011101 o
#94
b1000 u
b1000 t
b1011110 m
b1011110 q
b1011110 o
0h
#95
b1000 u
b1000 t
b1011111 m
b1011111 q
b1011111 o
#96
b1000 u
b1000 t
b1100000 m
b1100000 q
b1100000 o
1h
#97
b1000 u
b1000 t
b1100001 m
b1100001 q
b1100001 o
#98
b1000 u
b1000 t
b1100010 m
b1100010 q
b1100010 o
0h
#99
b1000 u
b1000 t
b1100011 m
b1100011 q
b1100011 o
#100
b1000 u
b1000 t
b1100100 m
b1100100 q
b1100100 o
1h
#101
b1000 u
b1000 t
b1100101 m
b1100101 q
b1100101 o
#102
b1000 u
b1000 t
b1100110 m
b1100110 q
b1100110 o
0h
#103
b1000 u
b1000 t
b1100111 m
b1100111 q
b1100111 o
#104
b1000 u
b1000 t
b1101000 m
b1101000 q
b1101000 o
1h
#105
b1000 u
b1000 t
b1101001 m
b1101001 q
b1101001 o
#106
1:"
07"
0d
b11 >"
1j
b11000100000010000000110010011 A
b11000100000010000000110010011 v
b11000100000010000000110010011 i
b1000 u
b1000 t
b1101010 m
b1101010 q
b1101010 o
0h
#107
b1000 u
b1000 t
b1101011 m
b1101011 q
b1101011 o
#108
0!"
b100 )"
b100 G"
b1000 ("
b1000 F"
bz f
bz ;"
b1100 ""
b1100 I"
1A"
b0 *"
b0 H"
b1 ."
b0 -"
0e
z7"
z:"
zd
b100 >"
b1000 @#
b11 C#
b1000 M"
b11 O"
b110001000 y
b110001000 <#
b1100 6"
b11 D"
0j
bz A
bz v
bz i
b11000100000010000000110010011 9"
b11000100000010000000110010011 :#
b1000 u
b1000 t
b1101100 m
b1101100 q
b1101100 o
1h
#109
b1000 u
b1000 t
b1101101 m
b1101101 q
b1101101 o
#110
b1000 u
b1000 t
b1101110 m
b1101110 q
b1101110 o
0h
#111
b1000 u
b1000 t
b1101111 m
b1101111 q
b1101111 o
#112
z!"
bz )"
bz G"
bz ""
bz I"
bz ."
bz -"
bz *"
bz H"
zA"
b101 >"
bz ("
bz F"
b100 D"
b1100 @"
0,"
b1100 +"
b1000 u
b1000 t
b1110000 m
b1110000 q
b1110000 o
1h
#113
b1000 u
b1000 t
b1110001 m
b1110001 q
b1110001 o
#114
b1000 u
b1000 t
b1110010 m
b1110010 q
b1110010 o
0h
#115
b1000 u
b1000 t
b1110011 m
b1110011 q
b1110011 o
#116
0!"
b11110110001000 E"
b11110110001000 A#
b110001000 )"
b110001000 G"
b11110000000000 ("
b11110000000000 F"
1B#
b11110110001000 ""
b11110110001000 I"
1B"
b1 C"
b0 *"
b0 H"
b10 ."
b1 -"
b1 >"
b101 D"
z,"
bz +"
b1000 u
b1000 t
b1110100 m
b1110100 q
b1110100 o
1h
#117
b1000 u
b1000 t
b1110101 m
b1110101 q
b1110101 o
#118
b1000 u
b1000 t
b1110110 m
b1110110 q
b1110110 o
0h
#119
b1000 u
b1000 t
b1110111 m
b1110111 q
b1110111 o
#120
z!"
b1100 f
b1100 ;"
bz E"
bz A#
bz )"
bz G"
bz ("
bz F"
bz A
bz v
xB#
bz ""
bz I"
07"
0d
1e
zB"
bz C"
bz ."
bz -"
bz *"
bz H"
b10 >"
b11110110001000 [
b1 D"
0,"
b11110110001000 +"
b1000 u
b1000 t
b1111000 m
b1111000 q
b1111000 o
1h
#121
b1000 u
b1000 t
b1111001 m
b1111001 q
b1111001 o
#122
b1000 u
b1000 t
b1111010 m
b1111010 q
b1111010 o
0h
#123
b1000 u
b1000 t
b1111011 m
b1111011 q
b1111011 o
#124
07"
0d
b10 >"
b10 D"
z,"
bz +"
b1000 u
b1000 t
b1111100 m
b1111100 q
b1111100 o
1h
#125
b1000 u
b1000 t
b1111101 m
b1111101 q
b1111101 o
#126
b1000 u
b1000 t
b1111110 m
b1111110 q
b1111110 o
0h
#127
b1000 u
b1000 t
b1111111 m
b1111111 q
b1111111 o
#128
b1000 u
b1000 t
b10000000 m
b10000000 q
b10000000 o
1h
#129
b1000 u
b1000 t
b10000001 m
b10000001 q
b10000001 o
#130
b1000 u
b1000 t
b10000010 m
b10000010 q
b10000010 o
0h
#131
b1000 u
b1000 t
b10000011 m
b10000011 q
b10000011 o
#132
b1000 u
b1000 t
b10000100 m
b10000100 q
b10000100 o
1h
#133
b1000 u
b1000 t
b10000101 m
b10000101 q
b10000101 o
#134
b1000 u
b1000 t
b10000110 m
b10000110 q
b10000110 o
0h
#135
b1000 u
b1000 t
b10000111 m
b10000111 q
b10000111 o
#136
b1000 u
b1000 t
b10001000 m
b10001000 q
b10001000 o
1h
#137
b1000 u
b1000 t
b10001001 m
b10001001 q
b10001001 o
#138
1:"
07"
0d
b11 >"
1j
b10010000010000111 A
b10010000010000111 v
b10010000010000111 i
b1000 u
b1000 t
b10001010 m
b10001010 q
b10001010 o
0h
#139
b1000 u
b1000 t
b10001011 m
b10001011 q
b10001011 o
#140
0!"
b100 )"
b100 G"
b1100 ("
b1100 F"
bz f
bz ;"
b10000 ""
b10000 I"
1A"
b0 *"
b0 H"
b1 ."
b0 -"
0e
z7"
z:"
zd
b100 >"
b0 @#
b1 C#
b0 M"
b1 O"
b0 y
b0 <#
b0 6"
b10 5"
b111 ?"
b11 D"
0j
bz A
bz v
bz i
b10010000010000111 9"
b10010000010000111 :#
b1000 u
b1000 t
b10001100 m
b10001100 q
b10001100 o
1h
#141
b1000 u
b1000 t
b10001101 m
b10001101 q
b10001101 o
#142
b1000 u
b1000 t
b10001110 m
b10001110 q
b10001110 o
0h
#143
b1000 u
b1000 t
b10001111 m
b10001111 q
b10001111 o
#144
z!"
bz )"
bz G"
bz ""
bz I"
bz ."
bz -"
bz *"
bz H"
zA"
b101 >"
bz ("
bz F"
b100 D"
b10000 @"
0,"
b10000 +"
b1000 u
b1000 t
b10010000 m
b10010000 q
b10010000 o
1h
#145
b1000 u
b1000 t
b10010001 m
b10010001 q
b10010001 o
#146
b1000 u
b1000 t
b10010010 m
b10010010 q
b10010010 o
0h
#147
b1000 u
b1000 t
b10010011 m
b10010011 q
b10010011 o
#148
0!"
b0 )"
b0 G"
b11110000000000 ("
b11110000000000 F"
b11110000000000 ""
b11110000000000 I"
b0 *"
b0 H"
b10 ."
b1 -"
b1010 >"
b101 D"
z,"
bz +"
b1000 u
b1000 t
b10010100 m
b10010100 q
b10010100 o
1h
#149
b1000 u
b1000 t
b10010101 m
b10010101 q
b10010101 o
#150
b1000 u
b1000 t
b10010110 m
b10010110 q
b10010110 o
0h
#151
b1000 u
b1000 t
b10010111 m
b10010111 q
b10010111 o
#152
b11110000000000 f
b11110000000000 ;"
bz A
bz v
17"
0d
1e
b11 ."
b10 -"
b0 *"
b0 H"
b1011 >"
b1010 D"
0,"
b11110000000000 +"
b1000 u
b1000 t
b10011000 m
b10011000 q
b10011000 o
1h
#153
b1000 u
b1000 t
b10011001 m
b10011001 q
b10011001 o
#154
b1000 u
b1000 t
b10011010 m
b10011010 q
b10011010 o
0h
